2 Data – Restaurants in NYC
…
    # Create a list of all unique violations ever received by the restaurant
    violations = list(unique(na.omit(`VIOLATION DESCRIPTION`))),
    .groups = "drop"
  )

cat("Final row count (Restaurants):", nrow(restaurants), "\n")

Final row count (Restaurants): 26592 

Code

# View the resulting dataframe
restaurants

# A tibble: 26,592 × 16
      CAMIS DBA                         BORO      BUILDING STREET            
      <dbl> <chr>                       <chr>     <chr>    <chr>             
 1 30075445 MORRIS PARK BAKE SHOP       Bronx     1007     MORRIS PARK AVENUE
 2 30191841 D.J. REYNOLDS               Manhattan 351      WEST   57 STREET  
 3 40356018 RIVIERA CATERERS            Brooklyn  2780     STILLWELL AVENUE  
 4 40356483 WILKEN'S FINE FOOD          Brooklyn  7114     AVENUE U          
 5 40356731 TASTE THE TROPICS ICE CREAM Brooklyn  1839     NOSTRAND AVENUE   
 6 40357217 ASIA PLAZA CAFÉ             Bronx     2300     SOUTHERN BOULEVARD
 7 40359480 1 EAST 66TH STREET KITCHEN  Manhattan 1        EAST   66 STREET  
 8 40359705 NATHAN'S FAMOUS             Brooklyn  1310     SURF AVENUE       
 9 40360045 SEUDA FOODS                 Brooklyn  705      KINGS HIGHWAY     
10 40361618 SAL'S DELI                  Queens    12908    20 AVENUE         
   ZIPCODE PHONE      CUISINE_DESCRIPTION      Latitude Longitude n_inspections
   <chr>   <chr>      <chr>                       <dbl>     <dbl>         <int>
 1 10462   7188924968 Bakery Products/Desserts     40.8     -73.9             5
 2 10019   2122452912 Irish                        40.8     -74.0             3
 3 11224   7183723031 American                     40.6     -74.0             2
 4 11234   7184443838 Sandwiches                   40.6     -73.9             6
 5 11226   7188560821 Frozen Desserts              40.6     -73.9             3
 6 10460   7187411426 American                     40.9     -73.9             2
 7 10065   2128793900 American                     40.8     -74.0             2
 8 11224   7183332202 Hotdogs                      40.6     -74.0             3
 9 11223   7183751500 Jewish/Kosher                40.6     -74.0             3
10 11356   7186619498 Sandwiches                   40.8     -73.8             3
   first_inspection last_inspection mean_score last_grade violations
   <date>           <date>               <dbl> <chr>      <list>    
 1 2023-01-31       2024-11-08           19.7  A          <chr [13]>
 2 2023-04-23       2025-02-20           18.4  A          <chr [8]> 
 3 2024-04-16       2025-09-17            6.67 A          <chr [3]> 
 4 2022-01-24       2025-01-06           23.6  A          <chr [14]>
 5 2023-01-17       2025-04-30           11.3  A          <chr [7]> 
 6 2024-05-21       2025-10-20           12    A          <chr [4]> 
 7 2019-10-01       2022-05-03            9    A          <chr [3]> 
 8 2023-04-26       2025-10-08           40.6  A          <chr [12]>
 9 2022-01-05       2024-07-29           10.8  A          <chr [7]> 
10 2022-02-01       2024-09-16           11.6  A          <chr [7]> 
# ℹ 26,582 more rows
…
